%YAML 1.1
%TAG !u! tag:unity3d.com,2011:
--- !u!114 &11400000
MonoBehaviour:
  m_ObjectHideFlags: 0
  m_CorrespondingSourceObject: {fileID: 0}
  m_PrefabInternal: {fileID: 0}
  m_GameObject: {fileID: 0}
  m_Enabled: 1
  m_EditorHideFlags: 0
  m_Script: {fileID: 11500000, guid: a7ab53aaff745754e9303674cab04903, type: 3}
  m_Name: Action
  m_EditorClassIdentifier: 
  mode: 0
  allowedKeys:
  - {fileID: 11400000, guid: 6866230bc929b4f4682d5a63ed86ef5d, type: 2}
  - {fileID: 11400000, guid: 849b0ec9611eeb74d8d233ab7676bcbf, type: 2}
